{
  "name": "zazdravemesto-fonts",
  "css_prefix_text": "icon-",
  "css_use_suffix": false,
  "hinting": true,
  "units_per_em": 1000,
  "ascent": 850,
  "glyphs": [
    {
      "uid": "ad33e708f4d2e25c5056c931da1528d6",
      "css": "ok-circled2",
      "code": 59392,
      "src": "fontawesome"
    },
    {
      "uid": "ead4c82d04d7758db0f076584893a8c1",
      "css": "calendar-empty",
      "code": 59401,
      "src": "fontawesome"
    },
    {
      "uid": "c53068fe21c8410b0a098b4c52c3d37e",
      "css": "down-circled2",
      "code": 59396,
      "src": "fontawesome"
    },
    {
      "uid": "128d63150a41800e0beff55235269542",
      "css": "up-circled2",
      "code": 59395,
      "src": "fontawesome"
    },
    {
      "uid": "a65ca48f3fe7d6e5c60edbd943f4fdb6",
      "css": "left-circled2",
      "code": 59394,
      "src": "fontawesome"
    },
    {
      "uid": "d0673ef38e1c458a6de52aad2a2f800d",
      "css": "right-circled2",
      "code": 59393,
      "src": "fontawesome"
    },
    {
      "uid": "ccddff8e8670dcd130e3cb55fdfc2fd0",
      "css": "down-open",
      "code": 59397,
      "src": "fontawesome"
    },
    {
      "uid": "d870630ff8f81e6de3958ecaeac532f2",
      "css": "left-open",
      "code": 59400,
      "src": "fontawesome"
    },
    {
      "uid": "399ef63b1e23ab1b761dfbb5591fa4da",
      "css": "right-open",
      "code": 59398,
      "src": "fontawesome"
    },
    {
      "uid": "fe6697b391355dec12f3d86d6d490397",
      "css": "up-open",
      "code": 59399,
      "src": "fontawesome"
    }
  ]
}